{"Nodes":[],"ExecutionTime":"2023-02-20T00:15:34.1410669Z","GenerationTime":"0001-01-01T00:00:00","PluginUserSpecFlowId":"df8a452d-2f28-4b1f-aee0-94d9e967524e","CLIUserSpecFlowId":null,"ExecutionResults":[{"ContextType":"Scenario","FeatureFolderPath":"Features","FeatureTitle":"Test Update PATCH Rest API's","ScenarioTitle":"Verify record is updated successfully using PATCH request API","ScenarioArguments":["https://reqres.in/api/users/2","morpheus","zion resident"],"Status":"OK","StepResults":[{"Duration":"00:00:00.7564725","Status":"OK","Error":null,"Outputs":[{"OutputLocation":"Step","Type":"Text","Message":"Response Code:True","FilePath":null},{"OutputLocation":"Step","Type":"Text","Message":"ResponseBody:{\"name\":\"morpheus\",\"job\":\"zion resident\",\"updatedAt\":\"2023-02-20T00:15:34.200Z\"}","FilePath":null}]},{"Duration":"00:00:00.0005396","Status":"OK","Error":null,"Outputs":null},{"Duration":"00:00:00.0045861","Status":"OK","Error":null,"Outputs":null}],"Outputs":[{"OutputLocation":"BeforeScenario","Type":"Text","Message":"Test Title:Verify record is updated successfully using PATCH request API","FilePath":null},{"OutputLocation":"BeforeScenario","Type":"Text","Message":"Test Started","FilePath":null},{"OutputLocation":"AfterScenario","Type":"Text","Message":"Test Completed","FilePath":null}]},{"ContextType":"Scenario","FeatureFolderPath":"Features","FeatureTitle":"Test Update PATCH Rest API's","ScenarioTitle":"Verify user tries to update invalid job type attribute in the PATCH request API","ScenarioArguments":["https://reqres.in/api/users","morpheus","20"],"Status":"OK","StepResults":[{"Duration":"00:00:00.7172986","Status":"OK","Error":null,"Outputs":[{"OutputLocation":"Step","Type":"Text","Message":"Response Code:False","FilePath":null},{"OutputLocation":"Step","Type":"Text","Message":"ResponseBody:<!DOCTYPE html>\n<html lang=\"en\">\n    <head>\n        <!-- Google Tag Manager -->\n        <script>\n            ;(function (w, d, s, l, i) {\n                w[l] = w[l] || []\n                w[l].push({\n                    'gtm.start': new Date().getTime(),\n                    event: 'gtm.js',\n                })\n                var f = d.getElementsByTagName(s)[0],\n                    j = d.createElement(s),\n                    dl = l != 'dataLayer' ? '&l=' + l : ''\n                j.async = true\n                j.src = 'https://www.googletagmanager.com/gtm.js?id=' + i + dl\n                f.parentNode.insertBefore(j, f)\n            })(window, document, 'script', 'dataLayer', 'GTM-KB622KF')\n        </script>\n        <!-- End Google Tag Manager -->\n        <script src=\"https://js.stripe.com/v3/\"></script>\n        <meta charset=\"utf-8\" />\n        <meta\n            name=\"viewport\"\n            content=\"width=device-width, initial-scale=1.0, maximum-scale=1.0\"\n        />\n        <meta\n            name=\"description\"\n            content=\"A hosted REST-API ready to respond to your AJAX requests\"\n        />\n        <title>\n            Reqres - A hosted REST-API ready to respond to your AJAX requests\n        </title>\n        <link\n            href=\"//maxcdn.bootstrapcdn.com/font-awesome/4.2.0/css/font-awesome.min.css\"\n            rel=\"stylesheet\"\n        />\n\n        <link rel=\"stylesheet\" href=\"/css/app.css\" />\n        <script\n            type=\"text/javascript\"\n            src=\"//m.servedby-buysellads.com/monetization.custom.js\"\n        ></script>\n    </head>\n    <body>\n        <div class=\"header-content\">\n            <header class=\"main-header\">\n                <section class=\"wrap\">\n                    <h1 class=\"logo\">\n                        <a href=\"/\"><img src=\"/img/logo.png\" alt=\"\" /></a>\n                    </h1>\n                </section>\n            </header>\n            <main class=\"the-sell\">\n                <div class=\"wrap\">\n                    <h2 class=\"tagline\">\n                        Test your front-end against a real API\n                    </h2>\n                    <section class=\"key-sells\">\n                        <div class=\"sell\">\n                            <div class=\"v-center\">\n                                <h3>Fake data</h3>\n                                <p>\n                                    No more tedious sample data creation, we've\n                                    got it covered.\n                                </p>\n                            </div>\n                            <i class=\"fa fa-cloud-download\"></i>\n                        </div>\n                        <div class=\"sell\">\n                            <div class=\"v-center\">\n                                <h3>Real responses</h3>\n                                <p>\n                                    Develop with real response codes. GET, POST,\n                                    PUT &amp; DELETE supported.\n                                </p>\n                            </div>\n                            <i class=\"fa fa-code\"></i>\n                        </div>\n                        <div class=\"sell\">\n                            <div class=\"v-center\">\n                                <h3>Always-on</h3>\n                                <p>\n                                    24/7 <strong><em>free</em></strong> access\n                                    in your development phases. Go nuts.\n                                </p>\n                            </div>\n                            <i class=\"fa fa-toggle-on\"></i>\n                        </div>\n                    </section>\n                    <h2 class=\"tagline\">\n                        A hosted REST-API ready to respond to your AJAX\n                        requests.\n                    </h2>\n                    <div class=\"t-center main-arrow\">\n                        <i class=\"fa fa-arrow-circle-down\"></i>\n                    </div>\n                    <script\n                        async\n                        type=\"text/javascript\"\n                        src=\"//cdn.carbonads.com/carbon.js?serve=CE7D6K3E&placement=reqresin\"\n                        id=\"_carbonads_js\"\n                    ></script>\n                </div>\n            </main>\n        </div>\n        <div class=\"container\">404</div>\n        <footer>\n            <div class=\"wrap\">\n                <hr class=\"dark\" />\n                <p class=\"t-center\">\n                    Made for developers and designers by\n                    <a href=\"https://benhowdle.im\">Ben Howdle</a>\n                </p>\n            </div>\n        </footer>\n        <script type=\"text/javascript\" src=\"https://cdnjs.cloudflare.com/ajax/libs/fastclick/1.0.3/fastclick.min.js\"></script>\n        <script src=\"/js/app.js\"></script>\n        <!-- Global site tag (gtag.js) - Google Analytics -->\n        <script\n            async\n            src=\"https://www.googletagmanager.com/gtag/js?id=UA-174008107-1\"\n        ></script>\n        <script>\n            window.dataLayer = window.dataLayer || []\n            function gtag() {\n                dataLayer.push(arguments)\n            }\n            gtag('js', new Date())\n\n            gtag('config', 'UA-174008107-1')\n        </script>\n        <script>\n            ;(function (i, s, o, g, r, a, m) {\n                i['GoogleAnalyticsObject'] = r\n                ;(i[r] =\n                    i[r] ||\n                    function () {\n                        ;(i[r].q = i[r].q || []).push(arguments)\n                    }),\n                    (i[r].l = 1 * new Date())\n                ;(a = s.createElement(o)), (m = s.getElementsByTagName(o)[0])\n                a.async = 1\n                a.src = g\n                m.parentNode.insertBefore(a, m)\n            })(\n                window,\n                document,\n                'script',\n                '//www.google-analytics.com/analytics.js',\n                'ga'\n            )\n\n            ga('create', 'UA-55888877-1', 'auto')\n            ga('send', 'pageview')\n        </script>\n        <script>\n            ;(function () {\n                if (typeof _bsa !== 'undefined' && _bsa) {\n                    _bsa.init(\n                        'custom',\n                        'CEBIP53J',\n                        'placement:reqresin-sponsor',\n                        {\n                            target: '#impeccable-js',\n                            template: `\n        <a href=\"##link##\" rel=\"sponsored noopener\" target=\"_blank\" title=\"##company## — ##tagline##\">\n        <img src=\"##logo##\" style=\"background-color: ##backgroundColor##\">\n        <div class=\"sponsor-description\">##description##</div>\n        <div class=\"sponsor-cta\" style=\"background-color: ##backgroundColor##; color: ##textColor##\">##callToAction##</div>\n        </a>\n        `,\n                        }\n                    )\n                }\n            })()\n        </script>\n    </body>\n</html>\n","FilePath":null}]},{"Duration":"00:00:00.0000709","Status":"OK","Error":null,"Outputs":null}],"Outputs":[{"OutputLocation":"BeforeScenario","Type":"Text","Message":"Test Title:Verify user tries to update invalid job type attribute in the PATCH request API","FilePath":null},{"OutputLocation":"BeforeScenario","Type":"Text","Message":"Test Started","FilePath":null},{"OutputLocation":"AfterScenario","Type":"Text","Message":"Test Completed","FilePath":null}]},{"ContextType":"Scenario","FeatureFolderPath":"Features","FeatureTitle":"Test GET Rest API's","ScenarioTitle":"Verify List of users by GET request API.","ScenarioArguments":["https://reqres.in/api/users?page=2","Lindsay","Ferguson"],"Status":"OK","StepResults":[{"Duration":"00:00:00.1365851","Status":"OK","Error":null,"Outputs":[{"OutputLocation":"Step","Type":"Text","Message":"Response Code:True","FilePath":null},{"OutputLocation":"Step","Type":"Text","Message":"Response Body:{\"page\":2,\"per_page\":6,\"total\":12,\"total_pages\":2,\"data\":[{\"id\":7,\"email\":\"michael.lawson@reqres.in\",\"first_name\":\"Michael\",\"last_name\":\"Lawson\",\"avatar\":\"https://reqres.in/img/faces/7-image.jpg\"},{\"id\":8,\"email\":\"lindsay.ferguson@reqres.in\",\"first_name\":\"Lindsay\",\"last_name\":\"Ferguson\",\"avatar\":\"https://reqres.in/img/faces/8-image.jpg\"},{\"id\":9,\"email\":\"tobias.funke@reqres.in\",\"first_name\":\"Tobias\",\"last_name\":\"Funke\",\"avatar\":\"https://reqres.in/img/faces/9-image.jpg\"},{\"id\":10,\"email\":\"byron.fields@reqres.in\",\"first_name\":\"Byron\",\"last_name\":\"Fields\",\"avatar\":\"https://reqres.in/img/faces/10-image.jpg\"},{\"id\":11,\"email\":\"george.edwards@reqres.in\",\"first_name\":\"George\",\"last_name\":\"Edwards\",\"avatar\":\"https://reqres.in/img/faces/11-image.jpg\"},{\"id\":12,\"email\":\"rachel.howell@reqres.in\",\"first_name\":\"Rachel\",\"last_name\":\"Howell\",\"avatar\":\"https://reqres.in/img/faces/12-image.jpg\"}],\"support\":{\"url\":\"https://reqres.in/#support-heading\",\"text\":\"To keep ReqRes free, contributions towards server costs are appreciated!\"}}","FilePath":null}]},{"Duration":"00:00:00.0004623","Status":"OK","Error":null,"Outputs":null},{"Duration":"00:00:00.0221278","Status":"OK","Error":null,"Outputs":null}],"Outputs":[{"OutputLocation":"BeforeScenario","Type":"Text","Message":"Test Title:Verify List of users by GET request API.","FilePath":null},{"OutputLocation":"BeforeScenario","Type":"Text","Message":"Test Started","FilePath":null},{"OutputLocation":"AfterScenario","Type":"Text","Message":"Test Completed","FilePath":null}]},{"ContextType":"Scenario","FeatureFolderPath":"Features","FeatureTitle":"Test GET Rest API's","ScenarioTitle":"Verify user sends invalid user GET API request","ScenarioArguments":["https://reqres.in/api/users/100"],"Status":"OK","StepResults":[{"Duration":"00:00:00.6614995","Status":"OK","Error":null,"Outputs":[{"OutputLocation":"Step","Type":"Text","Message":"Response Code:False","FilePath":null},{"OutputLocation":"Step","Type":"Text","Message":"Response Body:{}","FilePath":null}]},{"Duration":"00:00:00.0000213","Status":"OK","Error":null,"Outputs":null}],"Outputs":[{"OutputLocation":"BeforeScenario","Type":"Text","Message":"Test Title:Verify user sends invalid user GET API request","FilePath":null},{"OutputLocation":"BeforeScenario","Type":"Text","Message":"Test Started","FilePath":null},{"OutputLocation":"AfterScenario","Type":"Text","Message":"Test Completed","FilePath":null}]},{"ContextType":"Scenario","FeatureFolderPath":"Features","FeatureTitle":"Test GET Rest API's","ScenarioTitle":"Verify single user by GET request API.","ScenarioArguments":["https://reqres.in/api/users/2"],"Status":"OK","StepResults":[{"Duration":"00:00:00.6484394","Status":"OK","Error":null,"Outputs":[{"OutputLocation":"Step","Type":"Text","Message":"Response Code:True","FilePath":null},{"OutputLocation":"Step","Type":"Text","Message":"Response Body:{\"data\":{\"id\":2,\"email\":\"janet.weaver@reqres.in\",\"first_name\":\"Janet\",\"last_name\":\"Weaver\",\"avatar\":\"https://reqres.in/img/faces/2-image.jpg\"},\"support\":{\"url\":\"https://reqres.in/#support-heading\",\"text\":\"To keep ReqRes free, contributions towards server costs are appreciated!\"}}","FilePath":null}]},{"Duration":"00:00:00.0000140","Status":"OK","Error":null,"Outputs":null}],"Outputs":[{"OutputLocation":"BeforeScenario","Type":"Text","Message":"Test Title:Verify single user by GET request API.","FilePath":null},{"OutputLocation":"BeforeScenario","Type":"Text","Message":"Test Started","FilePath":null},{"OutputLocation":"AfterScenario","Type":"Text","Message":"Test Completed","FilePath":null}]},{"ContextType":"Scenario","FeatureFolderPath":"Features","FeatureTitle":"Test Update PUT Rest API's","ScenarioTitle":"Verify user tries to update invalid job type attribute in the PUT request API","ScenarioArguments":["https://reqres.in/api/users","morpheus","20"],"Status":"OK","StepResults":[{"Duration":"00:00:00.7637530","Status":"OK","Error":null,"Outputs":[{"OutputLocation":"Step","Type":"Text","Message":"Response Code:False","FilePath":null},{"OutputLocation":"Step","Type":"Text","Message":"ResponseBody:<!DOCTYPE html>\n<html lang=\"en\">\n    <head>\n        <!-- Google Tag Manager -->\n        <script>\n            ;(function (w, d, s, l, i) {\n                w[l] = w[l] || []\n                w[l].push({\n                    'gtm.start': new Date().getTime(),\n                    event: 'gtm.js',\n                })\n                var f = d.getElementsByTagName(s)[0],\n                    j = d.createElement(s),\n                    dl = l != 'dataLayer' ? '&l=' + l : ''\n                j.async = true\n                j.src = 'https://www.googletagmanager.com/gtm.js?id=' + i + dl\n                f.parentNode.insertBefore(j, f)\n            })(window, document, 'script', 'dataLayer', 'GTM-KB622KF')\n        </script>\n        <!-- End Google Tag Manager -->\n        <script src=\"https://js.stripe.com/v3/\"></script>\n        <meta charset=\"utf-8\" />\n        <meta\n            name=\"viewport\"\n            content=\"width=device-width, initial-scale=1.0, maximum-scale=1.0\"\n        />\n        <meta\n            name=\"description\"\n            content=\"A hosted REST-API ready to respond to your AJAX requests\"\n        />\n        <title>\n            Reqres - A hosted REST-API ready to respond to your AJAX requests\n        </title>\n        <link\n            href=\"//maxcdn.bootstrapcdn.com/font-awesome/4.2.0/css/font-awesome.min.css\"\n            rel=\"stylesheet\"\n        />\n\n        <link rel=\"stylesheet\" href=\"/css/app.css\" />\n        <script\n            type=\"text/javascript\"\n            src=\"//m.servedby-buysellads.com/monetization.custom.js\"\n        ></script>\n    </head>\n    <body>\n        <div class=\"header-content\">\n            <header class=\"main-header\">\n                <section class=\"wrap\">\n                    <h1 class=\"logo\">\n                        <a href=\"/\"><img src=\"/img/logo.png\" alt=\"\" /></a>\n                    </h1>\n                </section>\n            </header>\n            <main class=\"the-sell\">\n                <div class=\"wrap\">\n                    <h2 class=\"tagline\">\n                        Test your front-end against a real API\n                    </h2>\n                    <section class=\"key-sells\">\n                        <div class=\"sell\">\n                            <div class=\"v-center\">\n                                <h3>Fake data</h3>\n                                <p>\n                                    No more tedious sample data creation, we've\n                                    got it covered.\n                                </p>\n                            </div>\n                            <i class=\"fa fa-cloud-download\"></i>\n                        </div>\n                        <div class=\"sell\">\n                            <div class=\"v-center\">\n                                <h3>Real responses</h3>\n                                <p>\n                                    Develop with real response codes. GET, POST,\n                                    PUT &amp; DELETE supported.\n                                </p>\n                            </div>\n                            <i class=\"fa fa-code\"></i>\n                        </div>\n                        <div class=\"sell\">\n                            <div class=\"v-center\">\n                                <h3>Always-on</h3>\n                                <p>\n                                    24/7 <strong><em>free</em></strong> access\n                                    in your development phases. Go nuts.\n                                </p>\n                            </div>\n                            <i class=\"fa fa-toggle-on\"></i>\n                        </div>\n                    </section>\n                    <h2 class=\"tagline\">\n                        A hosted REST-API ready to respond to your AJAX\n                        requests.\n                    </h2>\n                    <div class=\"t-center main-arrow\">\n                        <i class=\"fa fa-arrow-circle-down\"></i>\n                    </div>\n                    <script\n                        async\n                        type=\"text/javascript\"\n                        src=\"//cdn.carbonads.com/carbon.js?serve=CE7D6K3E&placement=reqresin\"\n                        id=\"_carbonads_js\"\n                    ></script>\n                </div>\n            </main>\n        </div>\n        <div class=\"container\">404</div>\n        <footer>\n            <div class=\"wrap\">\n                <hr class=\"dark\" />\n                <p class=\"t-center\">\n                    Made for developers and designers by\n                    <a href=\"https://benhowdle.im\">Ben Howdle</a>\n                </p>\n            </div>\n        </footer>\n        <script type=\"text/javascript\" src=\"https://cdnjs.cloudflare.com/ajax/libs/fastclick/1.0.3/fastclick.min.js\"></script>\n        <script src=\"/js/app.js\"></script>\n        <!-- Global site tag (gtag.js) - Google Analytics -->\n        <script\n            async\n            src=\"https://www.googletagmanager.com/gtag/js?id=UA-174008107-1\"\n        ></script>\n        <script>\n            window.dataLayer = window.dataLayer || []\n            function gtag() {\n                dataLayer.push(arguments)\n            }\n            gtag('js', new Date())\n\n            gtag('config', 'UA-174008107-1')\n        </script>\n        <script>\n            ;(function (i, s, o, g, r, a, m) {\n                i['GoogleAnalyticsObject'] = r\n                ;(i[r] =\n                    i[r] ||\n                    function () {\n                        ;(i[r].q = i[r].q || []).push(arguments)\n                    }),\n                    (i[r].l = 1 * new Date())\n                ;(a = s.createElement(o)), (m = s.getElementsByTagName(o)[0])\n                a.async = 1\n                a.src = g\n                m.parentNode.insertBefore(a, m)\n            })(\n                window,\n                document,\n                'script',\n                '//www.google-analytics.com/analytics.js',\n                'ga'\n            )\n\n            ga('create', 'UA-55888877-1', 'auto')\n            ga('send', 'pageview')\n        </script>\n        <script>\n            ;(function () {\n                if (typeof _bsa !== 'undefined' && _bsa) {\n                    _bsa.init(\n                        'custom',\n                        'CEBIP53J',\n                        'placement:reqresin-sponsor',\n                        {\n                            target: '#impeccable-js',\n                            template: `\n        <a href=\"##link##\" rel=\"sponsored noopener\" target=\"_blank\" title=\"##company## — ##tagline##\">\n        <img src=\"##logo##\" style=\"background-color: ##backgroundColor##\">\n        <div class=\"sponsor-description\">##description##</div>\n        <div class=\"sponsor-cta\" style=\"background-color: ##backgroundColor##; color: ##textColor##\">##callToAction##</div>\n        </a>\n        `,\n                        }\n                    )\n                }\n            })()\n        </script>\n    </body>\n</html>\n","FilePath":null}]},{"Duration":"00:00:00.0004664","Status":"OK","Error":null,"Outputs":null}],"Outputs":[{"OutputLocation":"BeforeScenario","Type":"Text","Message":"Test Title:Verify user tries to update invalid job type attribute in the PUT request API","FilePath":null},{"OutputLocation":"BeforeScenario","Type":"Text","Message":"Test Started","FilePath":null},{"OutputLocation":"AfterScenario","Type":"Text","Message":"Test Completed","FilePath":null}]},{"ContextType":"Scenario","FeatureFolderPath":"Features","FeatureTitle":"Test Update PUT Rest API's","ScenarioTitle":"Verify record is updated successfully using PUT request API","ScenarioArguments":["https://reqres.in/api/users/2","morpheus","zion resident"],"Status":"OK","StepResults":[{"Duration":"00:00:00.7162597","Status":"OK","Error":null,"Outputs":[{"OutputLocation":"Step","Type":"Text","Message":"Response Code:True","FilePath":null},{"OutputLocation":"Step","Type":"Text","Message":"ResponseBody:{\"name\":\"morpheus\",\"job\":\"zion resident\",\"updatedAt\":\"2023-02-20T00:15:34.907Z\"}","FilePath":null}]},{"Duration":"00:00:00.0000242","Status":"OK","Error":null,"Outputs":null},{"Duration":"00:00:00.0000553","Status":"OK","Error":null,"Outputs":null}],"Outputs":[{"OutputLocation":"BeforeScenario","Type":"Text","Message":"Test Title:Verify record is updated successfully using PUT request API","FilePath":null},{"OutputLocation":"BeforeScenario","Type":"Text","Message":"Test Started","FilePath":null},{"OutputLocation":"AfterScenario","Type":"Text","Message":"Test Completed","FilePath":null}]},{"ContextType":"Scenario","FeatureFolderPath":"Features","FeatureTitle":"Test POST Rest API's","ScenarioTitle":"Verify user sends a invalid type for name attribute in the POST request API","ScenarioArguments":["https://reqres.in/api/users","20","leader"],"Status":"OK","StepResults":[{"Duration":"00:00:00.7613039","Status":"OK","Error":null,"Outputs":[{"OutputLocation":"Step","Type":"Text","Message":"Response Code:True","FilePath":null},{"OutputLocation":"Step","Type":"Text","Message":"ResponseBody:{\"name\":\"\\\"<InvalidTypename>\\\"\",\"job\":\"leader\",\"id\":\"690\",\"createdAt\":\"2023-02-20T00:15:34.194Z\"}","FilePath":null}]},{"Duration":"00:00:00.0069439","Status":"OK","Error":null,"Outputs":null}],"Outputs":[{"OutputLocation":"BeforeScenario","Type":"Text","Message":"Test Title:Verify user sends a invalid type for name attribute in the POST request API","FilePath":null},{"OutputLocation":"BeforeScenario","Type":"Text","Message":"Test Started","FilePath":null},{"OutputLocation":"AfterScenario","Type":"Text","Message":"Test Completed","FilePath":null}]},{"ContextType":"Scenario","FeatureFolderPath":"Features","FeatureTitle":"Test POST Rest API's","ScenarioTitle":"Verify user sends a invalid type for job attribute in the POST request API","ScenarioArguments":["https://reqres.in/api/users","morpheus","20"],"Status":"OK","StepResults":[{"Duration":"00:00:00.7139322","Status":"OK","Error":null,"Outputs":[{"OutputLocation":"Step","Type":"Text","Message":"Response Code:True","FilePath":null},{"OutputLocation":"Step","Type":"Text","Message":"ResponseBody:{\"name\":\"\\\"<InvalidTypename>\\\"\",\"job\":\"<job>\",\"id\":\"143\",\"createdAt\":\"2023-02-20T00:15:34.889Z\"}","FilePath":null}]},{"Duration":"00:00:00.0001313","Status":"OK","Error":null,"Outputs":null}],"Outputs":[{"OutputLocation":"BeforeScenario","Type":"Text","Message":"Test Title:Verify user sends a invalid type for job attribute in the POST request API","FilePath":null},{"OutputLocation":"BeforeScenario","Type":"Text","Message":"Test Started","FilePath":null},{"OutputLocation":"AfterScenario","Type":"Text","Message":"Test Completed","FilePath":null}]},{"ContextType":"Scenario","FeatureFolderPath":"Features","FeatureTitle":"Test POST Rest API's","ScenarioTitle":"Verify user is created successfully using POST request API","ScenarioArguments":["https://reqres.in/api/users","morpheus","leader"],"Status":"OK","StepResults":[{"Duration":"00:00:00.7056086","Status":"OK","Error":null,"Outputs":[{"OutputLocation":"Step","Type":"Text","Message":"Response Code:True","FilePath":null},{"OutputLocation":"Step","Type":"Text","Message":"ResponseBody:{\"name\":\"morpheus\",\"job\":\"leader\",\"id\":\"632\",\"createdAt\":\"2023-02-20T00:15:35.630Z\"}","FilePath":null}]},{"Duration":"00:00:00.0009485","Status":"OK","Error":null,"Outputs":null},{"Duration":"00:00:00.0039071","Status":"OK","Error":null,"Outputs":[{"OutputLocation":"Step","Type":"Text","Message":"ID:632\nCreatedAt:2/20/2023 12:15:35 AM","FilePath":null}]}],"Outputs":[{"OutputLocation":"BeforeScenario","Type":"Text","Message":"Test Title:Verify user is created successfully using POST request API","FilePath":null},{"OutputLocation":"BeforeScenario","Type":"Text","Message":"Test Started","FilePath":null},{"OutputLocation":"AfterScenario","Type":"Text","Message":"Test Completed","FilePath":null}]}],"StepReports":null}